<svg class="logo" xmlns="http://www.w3.org/2000/svg" viewBox="0 0 143 143">
    <g>
      <path d="M49.8 122.8c-14-8.4-18.5-27.7-12.1-42.7 1.4-3.4 3.4-6.5 4.2-10.1.8-3.6.4-7.7-2.5-9.8 5.3 2.1 9.5 7.7 9.8 13.4.6-6.2 3.5-11.9 6.5-17.3 3-5.5 6.1-11 7.1-17.2 1-6.1-.2-15.1-5-19C75 26 75.1 37.8 73.3 49.1c6.9-.7 9.2-7.9 10.8-16.3C92.2 44.2 96.2 61.1 89 75c3.6-1.2 8.4-5.8 8.2-9.6 18.2 22.5 10.9 47.4-.5 57.4" fill="none" stroke="currentcolor" stroke-width="3" stroke-linecap="round" stroke-linejoin="round" stroke-miterlimit="10"/>
      <path d="M57.3 93.6h-2c-.1 0-.2.1-.2.2v.6c-.3-.3-.6-.5-.9-.7-1.1-.5-2.5-.5-3.6 0-.5.2-1 .6-1.4 1-.4.4-.7.9-.9 1.5-.2.6-.3 1.2-.3 1.8 0 .6.1 1.2.3 1.8.2.6.5 1.1.9 1.5.4.4.8.8 1.4 1 1 .5 2.5.5 3.5 0 .3-.1.6-.3.8-.6 0 .4 0 .8-.1 1.1-.1.3-.2.6-.4.8-.2.2-.4.4-.7.5-.6.3-1.7.3-2.6-.1-.5-.2-.9-.5-1.3-.8-.1 0-.1-.1-.2-.1s-.1 0-.2.1l-1.2 1.6c-.1.1-.1.3 0 .3.3.2.6.4 1 .6.4.2.7.3 1.1.5l1.2.3c.4.1.8.1 1.1.1.8 0 1.6-.1 2.2-.4.6-.2 1.2-.6 1.6-1.1.4-.5.7-1 .9-1.7.2-.6.3-1.4.3-2.1v-7.7c0 .1-.2 0-.3 0M55.1 98c0 .3-.1.6-.2.9-.1.3-.3.5-.5.8-.2.2-.4.4-.7.5-.5.3-1.3.3-1.8 0-.3-.1-.5-.3-.7-.5-.2-.2-.3-.5-.4-.8-.1-.3-.2-.6-.2-.9 0-.3.1-.7.2-1 .1-.3.2-.6.4-.8.2-.2.4-.4.7-.5.3-.1.6-.2.9-.2.3 0 .7.1.9.2.3.1.5.3.7.5.2.2.3.5.5.8.1.4.2.7.2 1M67.4 94.6c-.3-.4-.7-.7-1.2-.9-.5-.2-1.2-.3-1.9-.3s-1.3.1-2 .3c-.7.2-1.2.6-1.7 1-.1.1-.1.2 0 .3l1.1 1.3c0 .1.1.1.2.1s.1 0 .2-.1c.2-.2.6-.5.9-.6.8-.4 1.8-.3 2.4.1.3.2.4.5.5.9-.6 0-1.2 0-1.8.1-.7.1-1.3.2-1.9.4-.6.2-1.1.5-1.5.9-.4.4-.6 1-.6 1.7 0 .5.1 1 .3 1.4.2.4.5.7.8.9.3.2.7.4 1.1.5.4.1.8.1 1.1.1.6 0 1.2-.1 1.7-.4.3-.1.5-.3.7-.5v.4c0 .1.1.2.2.2h2c.1 0 .2-.1.2-.2v-5.1c0-.4-.1-.9-.2-1.3 0-.4-.3-.8-.6-1.2m-1.9 4.1h.2c0 .6-.2 1.1-.5 1.4-.3.3-.8.5-1.5.5h-.5c-.1 0-.3-.1-.4-.1-.1-.1-.2-.1-.3-.2-.1-.1-.1-.2-.1-.4s.1-.4.2-.6c.2-.2.4-.3.7-.4.3-.1.6-.2 1-.2h1.2M84.1 94.5c-.3-.3-.6-.6-1-.8-.4-.2-.9-.3-1.5-.3-.7 0-1.3.2-1.8.4-.4.2-.7.5-1 .9-.2-.3-.5-.6-.9-.9-.5-.3-1.1-.5-1.8-.5-.4 0-.7 0-1 .1-.3.1-.6.2-.8.4-.2.2-.4.3-.6.5v-.6c0-.1-.1-.2-.2-.2h-2c-.1 0-.2.1-.2.2v8.4c0 .1.1.2.2.2h2.1c.1 0 .2-.1.2-.2v-4.6c0-.3 0-.5.1-.8.1-.2.2-.5.3-.7.1-.2.3-.3.5-.4.2-.1.4-.2.7-.2.5 0 .8.1 1 .4.2.3.3.7.3 1.2v5.1c0 .1.1.2.2.2H79c.1 0 .2-.1.2-.2v-4.6c0-.2 0-.5.1-.8.1-.2.2-.5.3-.7.1-.2.3-.3.5-.5.4-.2 1.1-.2 1.4 0 .2.1.3.3.4.4.1.2.2.4.2.6 0 .3.1.5.1.7v4.7c0 .1.1.2.2.2h2.1c.1 0 .2-.1.2-.2V97c0-.5-.1-.9-.2-1.3 0-.5-.2-.8-.4-1.2M95.3 95.8c-.1-.5-.3-.9-.6-1.2-.3-.4-.7-.7-1.2-.9-.5-.2-1.2-.3-1.9-.3s-1.3.1-2 .3c-.7.2-1.2.6-1.7 1-.1.1-.1.2 0 .3l1.1 1.3c0 .1.1.1.2.1s.1 0 .2-.1c.2-.2.6-.5.9-.6.8-.4 1.8-.3 2.4.1.3.2.4.5.5.9-.6 0-1.2 0-1.8.1-.7.1-1.3.2-1.9.4-.6.2-1.1.5-1.5.9-.4.4-.6 1-.6 1.7 0 .5.1 1 .3 1.4.2.4.5.7.8.9.3.2.7.4 1.1.5.4.1.8.1 1.1.1.6 0 1.2-.1 1.7-.4.3-.1.5-.3.7-.5v.4c0 .1.1.2.2.2h2c.1 0 .2-.1.2-.2v-5.1c0-.4-.1-.8-.2-1.3m-2.6 2.9h.3c0 .6-.2 1.1-.5 1.4-.3.3-.8.5-1.5.5h-.5c-.1 0-.3-.1-.4-.1-.1-.1-.2-.1-.3-.2-.1-.1-.1-.2-.1-.4s.1-.4.2-.6c.2-.2.4-.3.7-.4.3-.1.6-.2 1-.2h1.1"/>
    </g>
</svg>